Methods to address batch effects • batchtma
…
df
#> # A tibble: 400 x 6
#>    batch  batchnum person random  true noisy
#>    <chr>     <dbl> <chr>   <dbl> <dbl> <dbl>
#>  1 batchA        1 a      -0.850     2  4.63
#>  2 batchB        5 a       1.15      2  2.37
#>  3 batchC        2 a      -0.364     2  4.41
#>  4 batchD        3 a       1.53      2  3.54
#>  5 batchA        1 a       1.76      2  3.05
#>  6 batchB        5 a      -1.82      2  3.20
#>  7 batchC        2 a       0.112     2  3.88
#>  8 batchD        3 a       1.57      2  2.22
#>  9 batchA        1 a       0.206     2  2.90
#> 10 batchB        5 a      -0.174     2  3.82
#> # … with 390 more rows
…
